CPLD/asd.vcd
$date
  Fri Jan 10 15:06:53 2014
$end
$version
  GHDL v0
$end
$timescale
  1 fs
$end
$var reg 1 ! output $end
$var reg 1 " spiclk $end
$var reg 1 # pwmclk $end
$var reg 1 $ upclk $end
$var reg 1 % data $end
$var reg 1 & cs $end
$var reg 8 ' ivalue[7:0] $end
$var reg 1 ( regwen $end
$var reg 1 ) finished $end
$scope module spireg $end
$var reg 8 * input[7:0] $end
$var reg 8 + output[7:0] $end
$var reg 1 , serialout $end
$var reg 1 - serialin $end
$var reg 1 . clk $end
$var reg 1 / writeen $end
$var reg 1 0 serialwriteen $end
$upscope $end
$scope module pwm $end
$var reg 1 1 mosi $end
$var reg 1 2 cs $end
$var reg 1 3 clk $end
$var reg 1 4 pwmclk $end
$var reg 1 5 output $end
$var reg 8 6 pwmvalue[7:0] $end
$var reg 8 7 regoutput[7:0] $end
$scope module shiftreg $end
$var reg 8 8 input[7:0] $end
$var reg 8 9 output[7:0] $end
$var reg 1 : serialout $end
$var reg 1 ; serialin $end
$var reg 1 < clk $end
$var reg 1 = writeen $end
$var reg 1 > serialwriteen $end
$upscope $end
$upscope $end
$enddefinitions $end
#0
U!
0"
0#
0$
0%
1&
b00000000 '
0(
0)
b00000000 *
b00000000 +
0,
0-
0.
0/
00
01
12
03
04
U5
b00000000 6
b00000000 7
b00000000 8
b00000000 9
0:
0;
1<
0=
0>
#22000000
0!
1#
14
05
#44000000
0#
04
#66000000
1#
14
#88000000
0#
04
#110000000
1#
14
#132000000
0#
04
#154000000
1#
14
#176000000
0#
04
#198000000
1#
14
#220000000
0#
04
#242000000
1#
14
#264000000
0#
04
#286000000
1#
14
#308000000
0#
04
#330000000
1#
14
#352000000
0#
04
#374000000
1#
14
#396000000
0#
04
#418000000
1#
14
#440000000
0#
04
#462000000
1#
14
#484000000
0#
04
#506000000
1#
14
#528000000
0#
04
#550000000
1#
14
#572000000
0#
04
#594000000
1#
14
#616000000
0#
04
#638000000
1#
14
#660000000
0#
04
#682000000
1#
14
#704000000
0#
04
#726000000
1#
14
#748000000
0#
04
#770000000
1#
14
#792000000
0#
04
#814000000
1#
14
#836000000
0#
04
#858000000
1#
14
#880000000
0#
04
#902000000
1#
14
#924000000
0#
04
#946000000
1#
14
#968000000
0#
04
#990000000
1#
14
#1012000000
0#
04
#1034000000
1#
14
#1056000000
0#
04
#1078000000
1#
14
#1100000000
0#
04
#1122000000
1#
14
#1144000000
0#
04
#1166000000
1#
14
#1188000000
0#
04
#1210000000
1#
14
#1232000000
0#
04
#1254000000
1#
14
#1276000000
0#
04
#1298000000
1#
14
#1320000000
0#
04
#1342000000
1#
14
#1364000000
0#
04
#1386000000
1#
14
#1408000000
0#
04
#1430000000
1#
14
#1452000000
0#
04
#1474000000
1#
14
#1496000000
0#
04
#1518000000
1#
14
#1540000000
0#
04
#1562000000
1#
14
#1584000000
0#
04
#1606000000
1#
14
#1628000000
0#
04
#1650000000
1#
14
#1672000000
0#
04
#1694000000
1#
14
#1716000000
0#
04
#1738000000
1#
14
#1760000000
0#
04
#1782000000
1#
14
#1804000000
0#
04
#1826000000
1#
14
#1848000000
0#
04
#1870000000
1#
14
#1892000000
0#
04
#1914000000
1#
14
#1936000000
0#
04
#1958000000
1#
14
#1980000000
0#
04
#2002000000
1#
14
#2024000000
0#
04
#2046000000
1#
14
#2068000000
0#
04
#2090000000
1#
14
#2112000000
0#
04
#2134000000
1#
14
#2156000000
0#
04
#2178000000
1#
14
#2200000000
0#
04
#2222000000
1#
14
#2244000000
0#
04
#2266000000
1#
14
#2288000000
0#
04
#2310000000
1#
14
#2332000000
0#
04
#2354000000
1#
14
#2376000000
0#
04
#2398000000
1#
14
#2420000000
0#
04
#2442000000
1#
14
#2464000000
0#
04
#2486000000
1#
14
#2508000000
0#
04
#2530000000
1#
14
#2552000000
0#
04
#2574000000
1#
14
#2596000000
0#
04
#2618000000
1#
14
#2640000000
0#
04
#2662000000
1#
14
#2684000000
0#
04
#2706000000
1#
14
#2728000000
0#
04
#2750000000
1#
14
#2772000000
0#
04
#2794000000
1#
14
#2816000000
0#
04
#2838000000
1#
14
#2860000000
0#
04
#2882000000
1#
14
#2904000000
0#
04
#2926000000
1#
14
#2948000000
0#
04
#2970000000
1#
14
#2992000000
0#
04
#3014000000
1#
14
#3036000000
0#
04
#3058000000
1#
14
#3080000000
0#
04
#3102000000
1#
14
#3124000000
0#
04
#3146000000
1#
14
#3168000000
0#
04
#3190000000
1#
14
#3212000000
0#
04
#3234000000
1#
14
#3256000000
0#
04
#3278000000
1#
14
#3300000000
0#
04
#3322000000
1#
14
#3344000000
0#
04
#3366000000
1#
14
#3388000000
0#
04
#3410000000
1#
14
#3432000000
0#
04
#3454000000
1#
14
#3476000000
0#
04
#3498000000
1#
14
#3520000000
0#
04
#3542000000
1#
14
#3564000000
0#
04
#3586000000
1#
14
#3608000000
0#
04
#3630000000
1#
14
#3652000000
0#
04
#3674000000
1#
14
#3696000000
0#
04
#3718000000
1#
14
#3740000000
0#
04
#3762000000
1#
14
#3784000000
0#
04
#3806000000
1#
14
#3828000000
0#
04
#3850000000
1#
14
#3872000000
0#
04
#3894000000
1#
14
#3916000000
0#
04
#3938000000
1#
14
#3960000000
0#
04
#3982000000
1#
14
#4004000000
0#
04
#4026000000
1#
14
#4048000000
0#
04
#4070000000
1#
14
#4092000000
0#
04
#4114000000
1#
14
#4136000000
0#
04
#4158000000
1#
14
#4180000000
0#
04
#4202000000
1#
14
#4224000000
0#
04
#4246000000
1#
14
#4268000000
0#
04
#4290000000
1#
14
#4312000000
0#
04
#4334000000
1#
14
#4356000000
0#
04
#4378000000
1#
14
#4400000000
0#
04
#4422000000
1#
14
#4444000000
0#
04
#4466000000
1#
14
#4488000000
0#
04
#4510000000
1#
14
#4532000000
0#
04
#4554000000
1#
14
#4576000000
0#
04
#4598000000
1#
14
#4620000000
0#
04
#4642000000
1#
14
#4664000000
0#
04
#4686000000
1#
14
#4708000000
0#
04
#4730000000
1#
14
#4752000000
0#
04
#4774000000
1#
14
#4796000000
0#
04
#4818000000
1#
14
#4840000000
0#
04
#4862000000
1#
14
#4884000000
0#
04
#4906000000
1#
14
#4928000000
0#
04
#4950000000
1#
14
#4972000000
0#
04
#4994000000
1#
14
#5000000000
1$
b00000001 '
1(
b00000001 *
b00000001 +
1/
#5002000000
0&
0(
0/
10
02
1>
#5012000000
1"
1%
b00000000 +
1,
1.
11
13
1;
0<
#5016000000
0#
04
#5038000000
1#
14
#5060000000
0#
04
#5082000000
1#
14
#5104000000
0#
04
#5112000000
0"
0.
03
b10000000 7
b10000000 9
1<
#5126000000
1#
14
#5148000000
0#
04
#5170000000
1#
14
#5192000000
0#
04
#5212000000
1"
0%
0,
1.
01
13
0;
0<
#5214000000
1#
14
#5236000000
0#
04
#5258000000
1#
14
#5280000000
0#
04
#5302000000
1#
14
#5312000000
0"
0.
03
b01000000 7
b01000000 9
1<
#5324000000
0#
04
#5346000000
1#
14
#5368000000
0#
04
#5390000000
1#
14
#5412000000
1"
0#
1.
13
04
0<
#5434000000
1#
14
#5456000000
0#
04
#5478000000
1#
14
#5500000000
0#
04
#5512000000
0"
0.
03
b00100000 7
b00100000 9
1<
#5522000000
1#
14
#5544000000
0#
04
#5566000000
1#
14
#5588000000
0#
04
#5610000000
1#
14
#5612000000
1"
1.
13
0<
#5632000000
0#
04
#5654000000
1#
14
#5676000000
0#
04
#5698000000
1#
14
#5712000000
0"
0.
03
b00010000 7
b00010000 9
1<
#5720000000
0#
04
#5742000000
1#
14
#5764000000
0#
04
#5786000000
1#
14
#5808000000
0#
04
#5812000000
1"
1.
13
0<
#5830000000
1#
14
#5852000000
0#
04
#5874000000
1#
14
#5896000000
0#
04
#5912000000
0"
0.
03
b00001000 7
b00001000 9
1<
#5918000000
1#
14
#5940000000
0#
04
#5962000000
1#
14
#5984000000
0#
04
#6006000000
1#
14
#6012000000
1"
1.
13
0<
#6028000000
0#
04
#6050000000
1#
14
#6072000000
0#
04
#6094000000
1#
14
#6112000000
0"
0.
03
b00000100 7
b00000100 9
1<
#6116000000
0#
04
#6138000000
1#
14
#6160000000
0#
04
#6182000000
1#
14
#6204000000
0#
04
#6212000000
1"
1.
13
0<
#6226000000
1#
14
#6248000000
0#
04
#6270000000
1#
14
#6292000000
0#
04
#6312000000
0"
0.
03
b00000010 7
b00000010 9
1<
#6314000000
1#
14
#6336000000
0#
04
#6358000000
1#
14
#6380000000
0#
04
#6402000000
1#
14
#6412000000
1"
1.
13
0<
#6424000000
0#
04
#6446000000
1#
14
#6468000000
0#
04
#6490000000
1#
14
#6512000000
0"
0#
0.
03
04
b00000001 7
b00000001 9
1<
#6534000000
1#
14
#6556000000
0#
04
#6578000000
1#
14
#6600000000
0#
04
#6612000000
1&
00
12
b00000001 6
0>
